\relax 
\@writefile{lof}{\contentsline {figure}{\numberline {1}{\ignorespaces {Example of incremental construction of triangulation: (a) initial triangulation, (b) inserting a new vertex, and (c) flipping edges to generate a legal triangulation.}}}{4}}
\newlabel{fig4}{{1}{4}}
\@writefile{lof}{\contentsline {figure}{\numberline {2}{\ignorespaces {Example: the string for the above beach line would be $p_1p_2p_1p_3p_6p_4p_6p_7p_9$.)}}}{5}}
\newlabel{fig5}{{2}{5}}
\@writefile{lof}{\contentsline {figure}{\numberline {3}{\ignorespaces {Intersection of $n$ lines within a circle. }}}{7}}
\newlabel{fig1}{{3}{7}}
