\relax 
\select@language{english}
\@writefile{toc}{\select@language{english}}
\@writefile{lof}{\select@language{english}}
\@writefile{lot}{\select@language{english}}
\@writefile{lof}{\contentsline {figure}{\numberline {1}{\ignorespaces Example of a rectilinear polygon}}{3}}
\@writefile{lof}{\contentsline {figure}{\numberline {2}{\ignorespaces Example of a monotone polygon with a non-chain dual graph.}}{3}}
