\relax 
\@writefile{toc}{\contentsline {subparagraph}{Thm:}{1}}
\@writefile{toc}{\contentsline {subparagraph}{Pf:}{1}}
\@writefile{toc}{\contentsline {subparagraph}{Thm:}{1}}
\@writefile{toc}{\contentsline {subparagraph}{Pf:}{1}}
\@writefile{toc}{\contentsline {subparagraph}{Thm:}{1}}
\@writefile{toc}{\contentsline {subparagraph}{Pf:}{2}}
\@writefile{toc}{\contentsline {subparagraph}{Thm:}{2}}
\@writefile{toc}{\contentsline {subparagraph}{Pf:}{2}}
\@writefile{toc}{\contentsline {subparagraph}{Thm:}{2}}
\@writefile{toc}{\contentsline {subparagraph}{Pf:}{2}}
\@writefile{toc}{\contentsline {subparagraph}{Thm:}{2}}
\@writefile{toc}{\contentsline {subparagraph}{Pf:}{3}}
\@writefile{toc}{\contentsline {subparagraph}{Thm:}{3}}
\@writefile{toc}{\contentsline {subparagraph}{Pf:}{3}}
