\relax 
\@writefile{toc}{\contentsline {subparagraph}{Thm:}{1}}
\@writefile{toc}{\contentsline {subparagraph}{Pf:}{1}}
\@writefile{toc}{\contentsline {subparagraph}{Thm: Pumping lemma}{2}}
\@writefile{toc}{\contentsline {subparagraph}{Pf:}{2}}
\@writefile{toc}{\contentsline {subparagraph}{Thm:}{2}}
\@writefile{toc}{\contentsline {subparagraph}{Pf:}{2}}
\@writefile{toc}{\contentsline {subparagraph}{Thm: Pumping lemma for CFL's}{2}}
\@writefile{toc}{\contentsline {subparagraph}{Pf:}{2}}
\@writefile{toc}{\contentsline {subparagraph}{Thm:}{2}}
\@writefile{toc}{\contentsline {subparagraph}{Pf:}{3}}
\@writefile{toc}{\contentsline {subparagraph}{Thm:}{3}}
\@writefile{toc}{\contentsline {subparagraph}{Pf:}{3}}
\@writefile{toc}{\contentsline {subparagraph}{Thm:}{3}}
\@writefile{toc}{\contentsline {subparagraph}{Pf:}{3}}
\@writefile{toc}{\contentsline {subparagraph}{Thm:}{3}}
\@writefile{toc}{\contentsline {subparagraph}{Pf:}{3}}
\@writefile{toc}{\contentsline {subparagraph}{Thm:}{4}}
\@writefile{toc}{\contentsline {subparagraph}{Pf:}{4}}
\@writefile{toc}{\contentsline {subparagraph}{Thm:}{4}}
\@writefile{toc}{\contentsline {subparagraph}{Pf:}{4}}
\@writefile{toc}{\contentsline {subparagraph}{Thm:}{4}}
\@writefile{toc}{\contentsline {subparagraph}{Pf:}{4}}
\@writefile{toc}{\contentsline {subparagraph}{Thm:}{5}}
\@writefile{toc}{\contentsline {subparagraph}{Pf:}{5}}
\@writefile{toc}{\contentsline {subparagraph}{Thm:}{5}}
\@writefile{toc}{\contentsline {subparagraph}{Pf:}{5}}
\@writefile{toc}{\contentsline {subparagraph}{Thm: \textbf  {Fixed Point Theorem}}{5}}
\@writefile{toc}{\contentsline {subparagraph}{Pf:}{6}}
\@writefile{toc}{\contentsline {subparagraph}{Thm:}{6}}
\@writefile{toc}{\contentsline {subparagraph}{Pf:}{6}}
\@writefile{toc}{\contentsline {subparagraph}{Thm:}{6}}
\@writefile{toc}{\contentsline {subparagraph}{Pf:}{6}}
